{
    "http-basic": {
        "repo.koolreport.com": {
            "username": "techapps001@gmail.com",
            "password": "222bb5cb934c84740b5e8a4b5e7b9aad5143ece0287eb9ffb510d5043b2f5b5f"
        }
    }
}